{
    "editor": [
        {
            "icon": "",
            "key": "general",
            "header": "General",
            "disabled": false,
            "fields": [
                {
                    "key": "coin-padding",
                    "header": "Coin Padding",
                    "type": "text"
                },
                {
                    "key": "game-title",
                    "header": "Game Title",
                    "type": "text"
                }
            ]
        },
        {
            "icon": "",
            "key": "images",
            "header": "Images",
            "disabled": false,
            "fields": [
                {
                    "key": "coin-a",
                    "header": "Coin A",
                    "type": "image"
                },
                {
                    "key": "coin-b",
                    "header": "Coin B",
                    "type": "image"
                },
                {
                    "key": "coin-c",
                    "header": "Coin C",
                    "type": "image"
                },
                {
                    "key": "coin-d",
                    "header": "Coin D",
                    "type": "image"
                },
                {
                    "key": "coin-e",
                    "header": "Coin e",
                    "type": "image"
                },
                {
                    "key": "coin-f",
                    "header": "Coin f",
                    "type": "image"
                }
            ]
        }
    ],
    "config": {
        "general": {
            "coin-padding": "1px",
            "game-title": "covid safety"
        },
        "images": {
            "coin-a": "http://playcent.com/protected/project-picker/68c01fa4117147b1a7a3c3729ef5010a",
            "coin-b": "http://playcent.com/protected/project-picker/acad2782743e468285860720ed6a5586",
            "coin-c": "http://playcent.com/protected/project-picker/7ce5cb4e31634d548ac94ab3a022339c",
            "coin-d": "http://playcent.com/protected/project-picker/cc6d80b7812444c3b8f20b2462bb1323",
            "coin-e": "http://playcent.com/protected/project-picker/f4af1761829a4fc282a11a14da5067fa",
            "coin-f": "http://playcent.com/protected/project-picker/9a935d84943b48f78474b7b6b5bbe6f3"
        }
    }
}